{
	"name": "SimpleAPI",
	"description": "",
	"version": "1.0.0",
	"homepage": "",
	"mainsrc": "./",
	"projects": [],
	"dependencies": {
		"bitbucket.org/gabrielbaltazar/gbswagger": "2.0.0",
		"github.com/hashload/horse": "^1.7.5"
	}
}